^C:\USERS\MEDEE\ONEDRIVE\DOCUMENTS\MEDEEA\FACULTATE\LIBRARY_FLORESCUMEDEEA\PROIECT_SMC\SERVER\X64\DEBUG\MOC\MOC_MYTHREAD.CPP|C:\USERS\MEDEE\ONEDRIVE\DOCUMENTS\MEDEEA\FACULTATE\LIBRARY_FLORESCUMEDEEA\PROIECT_SMC\SERVER\X64\DEBUG\MOC\MOC_SERVER.CPP
C:\USERS\MEDEE\ONEDRIVE\DOCUMENTS\MEDEEA\FACULTATE\LIBRARY_FLORESCUMEDEEA\PROIECT_SMC\SERVER\X64\DEBUG\MOC_MYTHREAD.OBJ
C:\USERS\MEDEE\ONEDRIVE\DOCUMENTS\MEDEEA\FACULTATE\LIBRARY_FLORESCUMEDEEA\PROIECT_SMC\SERVER\X64\DEBUG\MOC_SERVER.OBJ
^C:\USERS\MEDEE\ONEDRIVE\DOCUMENTS\MEDEEA\FACULTATE\LIBRARY_FLORESCUMEDEEA\PROIECT_SMC\SERVER\MAIN.CPP|C:\USERS\MEDEE\ONEDRIVE\DOCUMENTS\MEDEEA\FACULTATE\LIBRARY_FLORESCUMEDEEA\PROIECT_SMC\SERVER\MYTHREAD.CPP|C:\USERS\MEDEE\ONEDRIVE\DOCUMENTS\MEDEEA\FACULTATE\LIBRARY_FLORESCUMEDEEA\PROIECT_SMC\SERVER\SERVER.CPP
C:\USERS\MEDEE\ONEDRIVE\DOCUMENTS\MEDEEA\FACULTATE\LIBRARY_FLORESCUMEDEEA\PROIECT_SMC\SERVER\X64\DEBUG\MAIN.OBJ
C:\USERS\MEDEE\ONEDRIVE\DOCUMENTS\MEDEEA\FACULTATE\LIBRARY_FLORESCUMEDEEA\PROIECT_SMC\SERVER\X64\DEBUG\SERVER.OBJ
C:\USERS\MEDEE\ONEDRIVE\DOCUMENTS\MEDEEA\FACULTATE\LIBRARY_FLORESCUMEDEEA\PROIECT_SMC\SERVER\X64\DEBUG\MYTHREAD.OBJ
^C:\USERS\MEDEE\ONEDRIVE\DOCUMENTS\MEDEEA\FACULTATE\PROIECTSMC\PROIECT SMC\PROIECT_SMC\SERVER\X64\DEBUG\MOC\MOC_MYTHREAD.CPP|C:\USERS\MEDEE\ONEDRIVE\DOCUMENTS\MEDEEA\FACULTATE\PROIECTSMC\PROIECT SMC\PROIECT_SMC\SERVER\X64\DEBUG\MOC\MOC_SERVER.CPP
C:\USERS\MEDEE\ONEDRIVE\DOCUMENTS\MEDEEA\FACULTATE\PROIECTSMC\PROIECT SMC\PROIECT_SMC\SERVER\X64\DEBUG\MOC_MYTHREAD.OBJ
C:\USERS\MEDEE\ONEDRIVE\DOCUMENTS\MEDEEA\FACULTATE\PROIECTSMC\PROIECT SMC\PROIECT_SMC\SERVER\X64\DEBUG\MOC_SERVER.OBJ
^C:\USERS\MEDEE\ONEDRIVE\DOCUMENTS\MEDEEA\FACULTATE\PROIECTSMC\PROIECT SMC\PROIECT_SMC\SERVER\MAIN.CPP|C:\USERS\MEDEE\ONEDRIVE\DOCUMENTS\MEDEEA\FACULTATE\PROIECTSMC\PROIECT SMC\PROIECT_SMC\SERVER\MYTHREAD.CPP|C:\USERS\MEDEE\ONEDRIVE\DOCUMENTS\MEDEEA\FACULTATE\PROIECTSMC\PROIECT SMC\PROIECT_SMC\SERVER\SERVER.CPP
C:\USERS\MEDEE\ONEDRIVE\DOCUMENTS\MEDEEA\FACULTATE\PROIECTSMC\PROIECT SMC\PROIECT_SMC\SERVER\X64\DEBUG\MYTHREAD.OBJ
C:\USERS\MEDEE\ONEDRIVE\DOCUMENTS\MEDEEA\FACULTATE\PROIECTSMC\PROIECT SMC\PROIECT_SMC\SERVER\X64\DEBUG\SERVER.OBJ
C:\USERS\MEDEE\ONEDRIVE\DOCUMENTS\MEDEEA\FACULTATE\PROIECTSMC\PROIECT SMC\PROIECT_SMC\SERVER\X64\DEBUG\MAIN.OBJ
^C:\USERS\MEDEE\ONEDRIVE\DOCUMENTS\MEDEEA\FACULTATE\PROIECTSMC\PROIECT SMC\PROIECT_SMC\SERVER\MAIN.CPP
C:\USERS\MEDEE\ONEDRIVE\DOCUMENTS\MEDEEA\FACULTATE\PROIECTSMC\PROIECT SMC\PROIECT_SMC\SERVER\X64\DEBUG\VC142.PDB
^C:\USERS\MEDEE\ONEDRIVE\DOCUMENTS\MEDEEA\FACULTATE\PROIECTSMC\PROIECT SMC\PROIECT_SMC\SERVER\MYTHREAD.CPP
C:\USERS\MEDEE\ONEDRIVE\DOCUMENTS\MEDEEA\FACULTATE\PROIECTSMC\PROIECT SMC\PROIECT_SMC\SERVER\X64\DEBUG\VC142.PDB
^C:\USERS\MEDEE\ONEDRIVE\DOCUMENTS\MEDEEA\FACULTATE\PROIECTSMC\PROIECT SMC\PROIECT_SMC\SERVER\SERVER.CPP
C:\USERS\MEDEE\ONEDRIVE\DOCUMENTS\MEDEEA\FACULTATE\PROIECTSMC\PROIECT SMC\PROIECT_SMC\SERVER\X64\DEBUG\VC142.PDB
^C:\USERS\MEDEE\ONEDRIVE\DOCUMENTS\MEDEEA\FACULTATE\PROIECTSMC\PROIECT SMC\PROIECT_SMC\SERVER\X64\DEBUG\MOC\MOC_SERVER.CPP
C:\USERS\MEDEE\ONEDRIVE\DOCUMENTS\MEDEEA\FACULTATE\PROIECTSMC\PROIECT SMC\PROIECT_SMC\SERVER\X64\DEBUG\VC142.PDB
^C:\USERS\MEDEE\ONEDRIVE\DOCUMENTS\MEDEEA\FACULTATE\PROIECTSMC\PROIECT SMC\PROIECT_SMC\SERVER\X64\DEBUG\MOC\MOC_MYTHREAD.CPP
C:\USERS\MEDEE\ONEDRIVE\DOCUMENTS\MEDEEA\FACULTATE\PROIECTSMC\PROIECT SMC\PROIECT_SMC\SERVER\X64\DEBUG\VC142.PDB
^C:\USERS\MEDEE\ONEDRIVE\DOCUMENTS\MEDEEA\FACULTATE\LIBRARY_FLORESCUMEDEEA\PROIECT_SMC\SERVER\MAIN.CPP
C:\USERS\MEDEE\ONEDRIVE\DOCUMENTS\MEDEEA\FACULTATE\LIBRARY_FLORESCUMEDEEA\PROIECT_SMC\SERVER\X64\DEBUG\VC142.PDB
^C:\USERS\MEDEE\ONEDRIVE\DOCUMENTS\MEDEEA\FACULTATE\LIBRARY_FLORESCUMEDEEA\PROIECT_SMC\SERVER\MYTHREAD.CPP
C:\USERS\MEDEE\ONEDRIVE\DOCUMENTS\MEDEEA\FACULTATE\LIBRARY_FLORESCUMEDEEA\PROIECT_SMC\SERVER\X64\DEBUG\VC142.PDB
^C:\USERS\MEDEE\ONEDRIVE\DOCUMENTS\MEDEEA\FACULTATE\LIBRARY_FLORESCUMEDEEA\PROIECT_SMC\SERVER\SERVER.CPP
C:\USERS\MEDEE\ONEDRIVE\DOCUMENTS\MEDEEA\FACULTATE\LIBRARY_FLORESCUMEDEEA\PROIECT_SMC\SERVER\X64\DEBUG\VC142.PDB
^C:\USERS\MEDEE\ONEDRIVE\DOCUMENTS\MEDEEA\FACULTATE\LIBRARY_FLORESCUMEDEEA\PROIECT_SMC\SERVER\X64\DEBUG\MOC\MOC_SERVER.CPP
C:\USERS\MEDEE\ONEDRIVE\DOCUMENTS\MEDEEA\FACULTATE\LIBRARY_FLORESCUMEDEEA\PROIECT_SMC\SERVER\X64\DEBUG\VC142.PDB
^C:\USERS\MEDEE\ONEDRIVE\DOCUMENTS\MEDEEA\FACULTATE\LIBRARY_FLORESCUMEDEEA\PROIECT_SMC\SERVER\X64\DEBUG\MOC\MOC_MYTHREAD.CPP
C:\USERS\MEDEE\ONEDRIVE\DOCUMENTS\MEDEEA\FACULTATE\LIBRARY_FLORESCUMEDEEA\PROIECT_SMC\SERVER\X64\DEBUG\VC142.PDB
