^C:\USERS\MEDEE\ONEDRIVE\DOCUMENTS\MEDEEA\FACULTATE\LIBRARY_FLORESCUMEDEEA\PROIECT_SMC\SERVER\SERVER.H
C:\USERS\MEDEE\ONEDRIVE\DOCUMENTS\MEDEEA\FACULTATE\LIBRARY_FLORESCUMEDEEA\PROIECT_SMC\SERVER\X64\DEBUG\MOC\MOC_SERVER.CPP
^C:\USERS\MEDEE\ONEDRIVE\DOCUMENTS\MEDEEA\FACULTATE\LIBRARY_FLORESCUMEDEEA\PROIECT_SMC\SERVER\MYTHREAD.H
C:\USERS\MEDEE\ONEDRIVE\DOCUMENTS\MEDEEA\FACULTATE\LIBRARY_FLORESCUMEDEEA\PROIECT_SMC\SERVER\X64\DEBUG\MOC\MOC_MYTHREAD.CPP
