^C:\USERS\MEDEE\ONEDRIVE\DOCUMENTS\MEDEEA\FACULTATE\PROIECTSMC\PROIECT SMC\PROIECT_SMC\PROIECT_SMC\EXTENDING.CPP
/c /IX64\DEBUG\UIC /IX64\DEBUG\MOC /I"C:\USERS\MEDEE\ONEDRIVE\DOCUMENTS\MEDEEA\FACULTATE\PROIECTSMC\PROIECT SMC\PROIECT_SMC\PROIECT_SMC\X64\DEBUG\QMAKE\TEMP" /IC:\QT\6.2.1\MSVC2019_64\INCLUDE /IC:\QT\6.2.1\MSVC2019_64\INCLUDE\QTWIDGETS /IC:\QT\6.2.1\MSVC2019_64\INCLUDE\QTGUI /IC:\QT\6.2.1\MSVC2019_64\INCLUDE\QTSQL /IC:\QT\6.2.1\MSVC2019_64\INCLUDE\QTNETWORK /IC:\QT\6.2.1\MSVC2019_64\INCLUDE\QTCORE /I"C:\USERS\MEDEE\ONEDRIVE\DOCUMENTS\MEDEEA\FACULTATE\PROIECTSMC\PROIECT SMC\PROIECT_SMC\PROIECT_SMC\X64\DEBUG\QMAKE\TEMP" /I/INCLUDE /I"C:\QT\6.2.1\MSVC2019_64\MKSPECS\WIN32-MSVC" /IX64\DEBUG\MOC /IX64\DEBUG\UIC /Zi /nologo /W1 /WX- /diagnostics:column /Od /D _WINDOWS /D UNICODE /D _UNICODE /D WIN32 /D _ENABLE_EXTENDED_ALIGNED_STORAGE /D WIN64 /D QT_WIDGETS_LIB /D QT_GUI_LIB /D QT_SQL_LIB /D QT_NETWORK_LIB /D QT_CORE_LIB /Gm- /EHsc /MDd /GS /fp:precise /Zc:wchar_t /Zc:forScope /Zc:inline /std:c++17 /Fo"X64\DEBUG\\" /Fd"X64\DEBUG\VC142.PDB" /external:W1 /Gd /TP /FC /Zc:__cplusplus -Zc:rvalueCast -Zc:inline -Zc:strictStrings -Zc:throwingNew -permissive- -Zc:__cplusplus -Zc:externConstexpr -utf-8  C:\USERS\MEDEE\ONEDRIVE\DOCUMENTS\MEDEEA\FACULTATE\PROIECTSMC\PROIECT SMC\PROIECT_SMC\PROIECT_SMC\EXTENDING.CPP
^C:\USERS\MEDEE\ONEDRIVE\DOCUMENTS\MEDEEA\FACULTATE\PROIECTSMC\PROIECT SMC\PROIECT_SMC\PROIECT_SMC\RETURN.CPP
/c /IX64\DEBUG\UIC /IX64\DEBUG\MOC /I"C:\USERS\MEDEE\ONEDRIVE\DOCUMENTS\MEDEEA\FACULTATE\PROIECTSMC\PROIECT SMC\PROIECT_SMC\PROIECT_SMC\X64\DEBUG\QMAKE\TEMP" /IC:\QT\6.2.1\MSVC2019_64\INCLUDE /IC:\QT\6.2.1\MSVC2019_64\INCLUDE\QTWIDGETS /IC:\QT\6.2.1\MSVC2019_64\INCLUDE\QTGUI /IC:\QT\6.2.1\MSVC2019_64\INCLUDE\QTSQL /IC:\QT\6.2.1\MSVC2019_64\INCLUDE\QTNETWORK /IC:\QT\6.2.1\MSVC2019_64\INCLUDE\QTCORE /I"C:\USERS\MEDEE\ONEDRIVE\DOCUMENTS\MEDEEA\FACULTATE\PROIECTSMC\PROIECT SMC\PROIECT_SMC\PROIECT_SMC\X64\DEBUG\QMAKE\TEMP" /I/INCLUDE /I"C:\QT\6.2.1\MSVC2019_64\MKSPECS\WIN32-MSVC" /IX64\DEBUG\MOC /IX64\DEBUG\UIC /Zi /nologo /W1 /WX- /diagnostics:column /Od /D _WINDOWS /D UNICODE /D _UNICODE /D WIN32 /D _ENABLE_EXTENDED_ALIGNED_STORAGE /D WIN64 /D QT_WIDGETS_LIB /D QT_GUI_LIB /D QT_SQL_LIB /D QT_NETWORK_LIB /D QT_CORE_LIB /Gm- /EHsc /MDd /GS /fp:precise /Zc:wchar_t /Zc:forScope /Zc:inline /std:c++17 /Fo"X64\DEBUG\\" /Fd"X64\DEBUG\VC142.PDB" /external:W1 /Gd /TP /FC /Zc:__cplusplus -Zc:rvalueCast -Zc:inline -Zc:strictStrings -Zc:throwingNew -permissive- -Zc:__cplusplus -Zc:externConstexpr -utf-8  C:\USERS\MEDEE\ONEDRIVE\DOCUMENTS\MEDEEA\FACULTATE\PROIECTSMC\PROIECT SMC\PROIECT_SMC\PROIECT_SMC\RETURN.CPP
^C:\USERS\MEDEE\ONEDRIVE\DOCUMENTS\MEDEEA\FACULTATE\PROIECTSMC\PROIECT SMC\PROIECT_SMC\PROIECT_SMC\X64\DEBUG\RCC\QRC_MAINWINDOW.CPP
/c /IX64\DEBUG\UIC /IX64\DEBUG\MOC /I"C:\USERS\MEDEE\ONEDRIVE\DOCUMENTS\MEDEEA\FACULTATE\PROIECTSMC\PROIECT SMC\PROIECT_SMC\PROIECT_SMC\\" /I"C:\USERS\MEDEE\ONEDRIVE\DOCUMENTS\MEDEEA\FACULTATE\PROIECTSMC\PROIECT SMC\PROIECT_SMC\PROIECT_SMC\X64\DEBUG\QMAKE\TEMP" /IC:\QT\6.2.1\MSVC2019_64\INCLUDE /IC:\QT\6.2.1\MSVC2019_64\INCLUDE\QTWIDGETS /IC:\QT\6.2.1\MSVC2019_64\INCLUDE\QTGUI /IC:\QT\6.2.1\MSVC2019_64\INCLUDE\QTSQL /IC:\QT\6.2.1\MSVC2019_64\INCLUDE\QTNETWORK /IC:\QT\6.2.1\MSVC2019_64\INCLUDE\QTCORE /I"C:\USERS\MEDEE\ONEDRIVE\DOCUMENTS\MEDEEA\FACULTATE\PROIECTSMC\PROIECT SMC\PROIECT_SMC\PROIECT_SMC\X64\DEBUG\QMAKE\TEMP" /I/INCLUDE /I"C:\QT\6.2.1\MSVC2019_64\MKSPECS\WIN32-MSVC" /IX64\DEBUG\MOC /IX64\DEBUG\UIC /Zi /nologo /W1 /WX- /diagnostics:column /Od /D _WINDOWS /D UNICODE /D _UNICODE /D WIN32 /D _ENABLE_EXTENDED_ALIGNED_STORAGE /D WIN64 /D QT_WIDGETS_LIB /D QT_GUI_LIB /D QT_SQL_LIB /D QT_NETWORK_LIB /D QT_CORE_LIB /Gm- /EHsc /MDd /GS /fp:precise /Zc:wchar_t /Zc:forScope /Zc:inline /std:c++17 /Fo"X64\DEBUG\\" /Fd"X64\DEBUG\VC142.PDB" /external:W1 /Gd /TP /FC /Zc:__cplusplus -Zc:rvalueCast -Zc:inline -Zc:strictStrings -Zc:throwingNew -permissive- -Zc:__cplusplus -Zc:externConstexpr -utf-8 C:\USERS\MEDEE\ONEDRIVE\DOCUMENTS\MEDEEA\FACULTATE\PROIECTSMC\PROIECT SMC\PROIECT_SMC\PROIECT_SMC\X64\DEBUG\RCC\QRC_MAINWINDOW.CPP
^C:\USERS\MEDEE\ONEDRIVE\DOCUMENTS\MEDEEA\FACULTATE\PROIECTSMC\PROIECT SMC\PROIECT_SMC\PROIECT_SMC\X64\DEBUG\MOC\MOC_EXTENDING.CPP
/c /IX64\DEBUG\UIC /IX64\DEBUG\MOC /I"C:\USERS\MEDEE\ONEDRIVE\DOCUMENTS\MEDEEA\FACULTATE\PROIECTSMC\PROIECT SMC\PROIECT_SMC\PROIECT_SMC\\" /I"C:\USERS\MEDEE\ONEDRIVE\DOCUMENTS\MEDEEA\FACULTATE\PROIECTSMC\PROIECT SMC\PROIECT_SMC\PROIECT_SMC\X64\DEBUG\QMAKE\TEMP" /IC:\QT\6.2.1\MSVC2019_64\INCLUDE /IC:\QT\6.2.1\MSVC2019_64\INCLUDE\QTWIDGETS /IC:\QT\6.2.1\MSVC2019_64\INCLUDE\QTGUI /IC:\QT\6.2.1\MSVC2019_64\INCLUDE\QTSQL /IC:\QT\6.2.1\MSVC2019_64\INCLUDE\QTNETWORK /IC:\QT\6.2.1\MSVC2019_64\INCLUDE\QTCORE /I"C:\USERS\MEDEE\ONEDRIVE\DOCUMENTS\MEDEEA\FACULTATE\PROIECTSMC\PROIECT SMC\PROIECT_SMC\PROIECT_SMC\X64\DEBUG\QMAKE\TEMP" /I/INCLUDE /I"C:\QT\6.2.1\MSVC2019_64\MKSPECS\WIN32-MSVC" /IX64\DEBUG\MOC /IX64\DEBUG\UIC /Zi /nologo /W1 /WX- /diagnostics:column /Od /D _WINDOWS /D UNICODE /D _UNICODE /D WIN32 /D _ENABLE_EXTENDED_ALIGNED_STORAGE /D WIN64 /D QT_WIDGETS_LIB /D QT_GUI_LIB /D QT_SQL_LIB /D QT_NETWORK_LIB /D QT_CORE_LIB /Gm- /EHsc /MDd /GS /fp:precise /Zc:wchar_t /Zc:forScope /Zc:inline /std:c++17 /Fo"X64\DEBUG\\" /Fd"X64\DEBUG\VC142.PDB" /external:W1 /Gd /TP /FC /Zc:__cplusplus -Zc:rvalueCast -Zc:inline -Zc:strictStrings -Zc:throwingNew -permissive- -Zc:__cplusplus -Zc:externConstexpr -utf-8  /Zc:__cplusplus -Zc:rvalueCast -Zc:inline -Zc:strictStrings -Zc:throwingNew -permissive- -Zc:__cplusplus -Zc:externConstexpr -utf-8 C:\USERS\MEDEE\ONEDRIVE\DOCUMENTS\MEDEEA\FACULTATE\PROIECTSMC\PROIECT SMC\PROIECT_SMC\PROIECT_SMC\X64\DEBUG\MOC\MOC_EXTENDING.CPP
^C:\USERS\MEDEE\ONEDRIVE\DOCUMENTS\MEDEEA\FACULTATE\PROIECTSMC\PROIECT SMC\PROIECT_SMC\PROIECT_SMC\X64\DEBUG\MOC\MOC_RETURN.CPP
/c /IX64\DEBUG\UIC /IX64\DEBUG\MOC /I"C:\USERS\MEDEE\ONEDRIVE\DOCUMENTS\MEDEEA\FACULTATE\PROIECTSMC\PROIECT SMC\PROIECT_SMC\PROIECT_SMC\\" /I"C:\USERS\MEDEE\ONEDRIVE\DOCUMENTS\MEDEEA\FACULTATE\PROIECTSMC\PROIECT SMC\PROIECT_SMC\PROIECT_SMC\X64\DEBUG\QMAKE\TEMP" /IC:\QT\6.2.1\MSVC2019_64\INCLUDE /IC:\QT\6.2.1\MSVC2019_64\INCLUDE\QTWIDGETS /IC:\QT\6.2.1\MSVC2019_64\INCLUDE\QTGUI /IC:\QT\6.2.1\MSVC2019_64\INCLUDE\QTSQL /IC:\QT\6.2.1\MSVC2019_64\INCLUDE\QTNETWORK /IC:\QT\6.2.1\MSVC2019_64\INCLUDE\QTCORE /I"C:\USERS\MEDEE\ONEDRIVE\DOCUMENTS\MEDEEA\FACULTATE\PROIECTSMC\PROIECT SMC\PROIECT_SMC\PROIECT_SMC\X64\DEBUG\QMAKE\TEMP" /I/INCLUDE /I"C:\QT\6.2.1\MSVC2019_64\MKSPECS\WIN32-MSVC" /IX64\DEBUG\MOC /IX64\DEBUG\UIC /Zi /nologo /W1 /WX- /diagnostics:column /Od /D _WINDOWS /D UNICODE /D _UNICODE /D WIN32 /D _ENABLE_EXTENDED_ALIGNED_STORAGE /D WIN64 /D QT_WIDGETS_LIB /D QT_GUI_LIB /D QT_SQL_LIB /D QT_NETWORK_LIB /D QT_CORE_LIB /Gm- /EHsc /MDd /GS /fp:precise /Zc:wchar_t /Zc:forScope /Zc:inline /std:c++17 /Fo"X64\DEBUG\\" /Fd"X64\DEBUG\VC142.PDB" /external:W1 /Gd /TP /FC /Zc:__cplusplus -Zc:rvalueCast -Zc:inline -Zc:strictStrings -Zc:throwingNew -permissive- -Zc:__cplusplus -Zc:externConstexpr -utf-8  /Zc:__cplusplus -Zc:rvalueCast -Zc:inline -Zc:strictStrings -Zc:throwingNew -permissive- -Zc:__cplusplus -Zc:externConstexpr -utf-8 C:\USERS\MEDEE\ONEDRIVE\DOCUMENTS\MEDEEA\FACULTATE\PROIECTSMC\PROIECT SMC\PROIECT_SMC\PROIECT_SMC\X64\DEBUG\MOC\MOC_RETURN.CPP
^C:\USERS\MEDEE\ONEDRIVE\DOCUMENTS\MEDEEA\FACULTATE\PROIECTSMC\PROIECT SMC\PROIECT_SMC\PROIECT_SMC\X64\DEBUG\MOC\MOC_MANAGEACCOUNT.CPP
/c /IX64\DEBUG\UIC /IX64\DEBUG\MOC /I"C:\USERS\MEDEE\ONEDRIVE\DOCUMENTS\MEDEEA\FACULTATE\PROIECTSMC\PROIECT SMC\PROIECT_SMC\PROIECT_SMC\\" /I"C:\USERS\MEDEE\ONEDRIVE\DOCUMENTS\MEDEEA\FACULTATE\PROIECTSMC\PROIECT SMC\PROIECT_SMC\PROIECT_SMC\X64\DEBUG\QMAKE\TEMP" /IC:\QT\6.2.1\MSVC2019_64\INCLUDE /IC:\QT\6.2.1\MSVC2019_64\INCLUDE\QTWIDGETS /IC:\QT\6.2.1\MSVC2019_64\INCLUDE\QTGUI /IC:\QT\6.2.1\MSVC2019_64\INCLUDE\QTSQL /IC:\QT\6.2.1\MSVC2019_64\INCLUDE\QTNETWORK /IC:\QT\6.2.1\MSVC2019_64\INCLUDE\QTCORE /I"C:\USERS\MEDEE\ONEDRIVE\DOCUMENTS\MEDEEA\FACULTATE\PROIECTSMC\PROIECT SMC\PROIECT_SMC\PROIECT_SMC\X64\DEBUG\QMAKE\TEMP" /I/INCLUDE /I"C:\QT\6.2.1\MSVC2019_64\MKSPECS\WIN32-MSVC" /IX64\DEBUG\MOC /IX64\DEBUG\UIC /Zi /nologo /W1 /WX- /diagnostics:column /Od /D _WINDOWS /D UNICODE /D _UNICODE /D WIN32 /D _ENABLE_EXTENDED_ALIGNED_STORAGE /D WIN64 /D QT_WIDGETS_LIB /D QT_GUI_LIB /D QT_SQL_LIB /D QT_NETWORK_LIB /D QT_CORE_LIB /Gm- /EHsc /MDd /GS /fp:precise /Zc:wchar_t /Zc:forScope /Zc:inline /std:c++17 /Fo"X64\DEBUG\\" /Fd"X64\DEBUG\VC142.PDB" /external:W1 /Gd /TP /FC /Zc:__cplusplus -Zc:rvalueCast -Zc:inline -Zc:strictStrings -Zc:throwingNew -permissive- -Zc:__cplusplus -Zc:externConstexpr -utf-8  /Zc:__cplusplus -Zc:rvalueCast -Zc:inline -Zc:strictStrings -Zc:throwingNew -permissive- -Zc:__cplusplus -Zc:externConstexpr -utf-8 C:\USERS\MEDEE\ONEDRIVE\DOCUMENTS\MEDEEA\FACULTATE\PROIECTSMC\PROIECT SMC\PROIECT_SMC\PROIECT_SMC\X64\DEBUG\MOC\MOC_MANAGEACCOUNT.CPP
^C:\USERS\MEDEE\ONEDRIVE\DOCUMENTS\MEDEEA\FACULTATE\PROIECTSMC\PROIECT SMC\PROIECT_SMC\PROIECT_SMC\ACCOUNT.CPP
/c /IX64\DEBUG\UIC /IX64\DEBUG\MOC /I"C:\USERS\MEDEE\ONEDRIVE\DOCUMENTS\MEDEEA\FACULTATE\PROIECTSMC\PROIECT SMC\PROIECT_SMC\PROIECT_SMC\X64\DEBUG\QMAKE\TEMP" /IC:\QT\6.2.1\MSVC2019_64\INCLUDE /IC:\QT\6.2.1\MSVC2019_64\INCLUDE\QTWIDGETS /IC:\QT\6.2.1\MSVC2019_64\INCLUDE\QTGUI /IC:\QT\6.2.1\MSVC2019_64\INCLUDE\QTSQL /IC:\QT\6.2.1\MSVC2019_64\INCLUDE\QTNETWORK /IC:\QT\6.2.1\MSVC2019_64\INCLUDE\QTCORE /I"C:\USERS\MEDEE\ONEDRIVE\DOCUMENTS\MEDEEA\FACULTATE\PROIECTSMC\PROIECT SMC\PROIECT_SMC\PROIECT_SMC\X64\DEBUG\QMAKE\TEMP" /I/INCLUDE /I"C:\QT\6.2.1\MSVC2019_64\MKSPECS\WIN32-MSVC" /IX64\DEBUG\MOC /IX64\DEBUG\UIC /Zi /nologo /W1 /WX- /diagnostics:column /Od /D _WINDOWS /D UNICODE /D _UNICODE /D WIN32 /D _ENABLE_EXTENDED_ALIGNED_STORAGE /D WIN64 /D QT_WIDGETS_LIB /D QT_GUI_LIB /D QT_SQL_LIB /D QT_NETWORK_LIB /D QT_CORE_LIB /Gm- /EHsc /MDd /GS /fp:precise /Zc:wchar_t /Zc:forScope /Zc:inline /std:c++17 /Fo"X64\DEBUG\\" /Fd"X64\DEBUG\VC142.PDB" /external:W1 /Gd /TP /FC /Zc:__cplusplus -Zc:rvalueCast -Zc:inline -Zc:strictStrings -Zc:throwingNew -permissive- -Zc:__cplusplus -Zc:externConstexpr -utf-8  C:\USERS\MEDEE\ONEDRIVE\DOCUMENTS\MEDEEA\FACULTATE\PROIECTSMC\PROIECT SMC\PROIECT_SMC\PROIECT_SMC\ACCOUNT.CPP
^C:\USERS\MEDEE\ONEDRIVE\DOCUMENTS\MEDEEA\FACULTATE\PROIECTSMC\PROIECT SMC\PROIECT_SMC\PROIECT_SMC\BORROW.CPP
/c /IX64\DEBUG\UIC /IX64\DEBUG\MOC /I"C:\USERS\MEDEE\ONEDRIVE\DOCUMENTS\MEDEEA\FACULTATE\PROIECTSMC\PROIECT SMC\PROIECT_SMC\PROIECT_SMC\X64\DEBUG\QMAKE\TEMP" /IC:\QT\6.2.1\MSVC2019_64\INCLUDE /IC:\QT\6.2.1\MSVC2019_64\INCLUDE\QTWIDGETS /IC:\QT\6.2.1\MSVC2019_64\INCLUDE\QTGUI /IC:\QT\6.2.1\MSVC2019_64\INCLUDE\QTSQL /IC:\QT\6.2.1\MSVC2019_64\INCLUDE\QTNETWORK /IC:\QT\6.2.1\MSVC2019_64\INCLUDE\QTCORE /I"C:\USERS\MEDEE\ONEDRIVE\DOCUMENTS\MEDEEA\FACULTATE\PROIECTSMC\PROIECT SMC\PROIECT_SMC\PROIECT_SMC\X64\DEBUG\QMAKE\TEMP" /I/INCLUDE /I"C:\QT\6.2.1\MSVC2019_64\MKSPECS\WIN32-MSVC" /IX64\DEBUG\MOC /IX64\DEBUG\UIC /Zi /nologo /W1 /WX- /diagnostics:column /Od /D _WINDOWS /D UNICODE /D _UNICODE /D WIN32 /D _ENABLE_EXTENDED_ALIGNED_STORAGE /D WIN64 /D QT_WIDGETS_LIB /D QT_GUI_LIB /D QT_SQL_LIB /D QT_NETWORK_LIB /D QT_CORE_LIB /Gm- /EHsc /MDd /GS /fp:precise /Zc:wchar_t /Zc:forScope /Zc:inline /std:c++17 /Fo"X64\DEBUG\\" /Fd"X64\DEBUG\VC142.PDB" /external:W1 /Gd /TP /FC /Zc:__cplusplus -Zc:rvalueCast -Zc:inline -Zc:strictStrings -Zc:throwingNew -permissive- -Zc:__cplusplus -Zc:externConstexpr -utf-8  C:\USERS\MEDEE\ONEDRIVE\DOCUMENTS\MEDEEA\FACULTATE\PROIECTSMC\PROIECT SMC\PROIECT_SMC\PROIECT_SMC\BORROW.CPP
^C:\USERS\MEDEE\ONEDRIVE\DOCUMENTS\MEDEEA\FACULTATE\PROIECTSMC\PROIECT SMC\PROIECT_SMC\PROIECT_SMC\BORROWEDBOOKS.CPP
/c /IX64\DEBUG\UIC /IX64\DEBUG\MOC /I"C:\USERS\MEDEE\ONEDRIVE\DOCUMENTS\MEDEEA\FACULTATE\PROIECTSMC\PROIECT SMC\PROIECT_SMC\PROIECT_SMC\X64\DEBUG\QMAKE\TEMP" /IC:\QT\6.2.1\MSVC2019_64\INCLUDE /IC:\QT\6.2.1\MSVC2019_64\INCLUDE\QTWIDGETS /IC:\QT\6.2.1\MSVC2019_64\INCLUDE\QTGUI /IC:\QT\6.2.1\MSVC2019_64\INCLUDE\QTSQL /IC:\QT\6.2.1\MSVC2019_64\INCLUDE\QTNETWORK /IC:\QT\6.2.1\MSVC2019_64\INCLUDE\QTCORE /I"C:\USERS\MEDEE\ONEDRIVE\DOCUMENTS\MEDEEA\FACULTATE\PROIECTSMC\PROIECT SMC\PROIECT_SMC\PROIECT_SMC\X64\DEBUG\QMAKE\TEMP" /I/INCLUDE /I"C:\QT\6.2.1\MSVC2019_64\MKSPECS\WIN32-MSVC" /IX64\DEBUG\MOC /IX64\DEBUG\UIC /Zi /nologo /W1 /WX- /diagnostics:column /Od /D _WINDOWS /D UNICODE /D _UNICODE /D WIN32 /D _ENABLE_EXTENDED_ALIGNED_STORAGE /D WIN64 /D QT_WIDGETS_LIB /D QT_GUI_LIB /D QT_SQL_LIB /D QT_NETWORK_LIB /D QT_CORE_LIB /Gm- /EHsc /MDd /GS /fp:precise /Zc:wchar_t /Zc:forScope /Zc:inline /std:c++17 /Fo"X64\DEBUG\\" /Fd"X64\DEBUG\VC142.PDB" /external:W1 /Gd /TP /FC /Zc:__cplusplus -Zc:rvalueCast -Zc:inline -Zc:strictStrings -Zc:throwingNew -permissive- -Zc:__cplusplus -Zc:externConstexpr -utf-8  C:\USERS\MEDEE\ONEDRIVE\DOCUMENTS\MEDEEA\FACULTATE\PROIECTSMC\PROIECT SMC\PROIECT_SMC\PROIECT_SMC\BORROWEDBOOKS.CPP
^C:\USERS\MEDEE\ONEDRIVE\DOCUMENTS\MEDEEA\FACULTATE\PROIECTSMC\PROIECT SMC\PROIECT_SMC\PROIECT_SMC\MAIN.CPP
/c /IX64\DEBUG\UIC /IX64\DEBUG\MOC /I"C:\USERS\MEDEE\ONEDRIVE\DOCUMENTS\MEDEEA\FACULTATE\PROIECTSMC\PROIECT SMC\PROIECT_SMC\PROIECT_SMC\X64\DEBUG\QMAKE\TEMP" /IC:\QT\6.2.1\MSVC2019_64\INCLUDE /IC:\QT\6.2.1\MSVC2019_64\INCLUDE\QTWIDGETS /IC:\QT\6.2.1\MSVC2019_64\INCLUDE\QTGUI /IC:\QT\6.2.1\MSVC2019_64\INCLUDE\QTSQL /IC:\QT\6.2.1\MSVC2019_64\INCLUDE\QTNETWORK /IC:\QT\6.2.1\MSVC2019_64\INCLUDE\QTCORE /I"C:\USERS\MEDEE\ONEDRIVE\DOCUMENTS\MEDEEA\FACULTATE\PROIECTSMC\PROIECT SMC\PROIECT_SMC\PROIECT_SMC\X64\DEBUG\QMAKE\TEMP" /I/INCLUDE /I"C:\QT\6.2.1\MSVC2019_64\MKSPECS\WIN32-MSVC" /IX64\DEBUG\MOC /IX64\DEBUG\UIC /Zi /nologo /W1 /WX- /diagnostics:column /Od /D _WINDOWS /D UNICODE /D _UNICODE /D WIN32 /D _ENABLE_EXTENDED_ALIGNED_STORAGE /D WIN64 /D QT_WIDGETS_LIB /D QT_GUI_LIB /D QT_SQL_LIB /D QT_NETWORK_LIB /D QT_CORE_LIB /Gm- /EHsc /MDd /GS /fp:precise /Zc:wchar_t /Zc:forScope /Zc:inline /std:c++17 /Fo"X64\DEBUG\\" /Fd"X64\DEBUG\VC142.PDB" /external:W1 /Gd /TP /FC /Zc:__cplusplus -Zc:rvalueCast -Zc:inline -Zc:strictStrings -Zc:throwingNew -permissive- -Zc:__cplusplus -Zc:externConstexpr -utf-8  C:\USERS\MEDEE\ONEDRIVE\DOCUMENTS\MEDEEA\FACULTATE\PROIECTSMC\PROIECT SMC\PROIECT_SMC\PROIECT_SMC\MAIN.CPP
^C:\USERS\MEDEE\ONEDRIVE\DOCUMENTS\MEDEEA\FACULTATE\PROIECTSMC\PROIECT SMC\PROIECT_SMC\PROIECT_SMC\MAINWINDOW.CPP
/c /IX64\DEBUG\UIC /IX64\DEBUG\MOC /I"C:\USERS\MEDEE\ONEDRIVE\DOCUMENTS\MEDEEA\FACULTATE\PROIECTSMC\PROIECT SMC\PROIECT_SMC\PROIECT_SMC\X64\DEBUG\QMAKE\TEMP" /IC:\QT\6.2.1\MSVC2019_64\INCLUDE /IC:\QT\6.2.1\MSVC2019_64\INCLUDE\QTWIDGETS /IC:\QT\6.2.1\MSVC2019_64\INCLUDE\QTGUI /IC:\QT\6.2.1\MSVC2019_64\INCLUDE\QTSQL /IC:\QT\6.2.1\MSVC2019_64\INCLUDE\QTNETWORK /IC:\QT\6.2.1\MSVC2019_64\INCLUDE\QTCORE /I"C:\USERS\MEDEE\ONEDRIVE\DOCUMENTS\MEDEEA\FACULTATE\PROIECTSMC\PROIECT SMC\PROIECT_SMC\PROIECT_SMC\X64\DEBUG\QMAKE\TEMP" /I/INCLUDE /I"C:\QT\6.2.1\MSVC2019_64\MKSPECS\WIN32-MSVC" /IX64\DEBUG\MOC /IX64\DEBUG\UIC /Zi /nologo /W1 /WX- /diagnostics:column /Od /D _WINDOWS /D UNICODE /D _UNICODE /D WIN32 /D _ENABLE_EXTENDED_ALIGNED_STORAGE /D WIN64 /D QT_WIDGETS_LIB /D QT_GUI_LIB /D QT_SQL_LIB /D QT_NETWORK_LIB /D QT_CORE_LIB /Gm- /EHsc /MDd /GS /fp:precise /Zc:wchar_t /Zc:forScope /Zc:inline /std:c++17 /Fo"X64\DEBUG\\" /Fd"X64\DEBUG\VC142.PDB" /external:W1 /Gd /TP /FC /Zc:__cplusplus -Zc:rvalueCast -Zc:inline -Zc:strictStrings -Zc:throwingNew -permissive- -Zc:__cplusplus -Zc:externConstexpr -utf-8  C:\USERS\MEDEE\ONEDRIVE\DOCUMENTS\MEDEEA\FACULTATE\PROIECTSMC\PROIECT SMC\PROIECT_SMC\PROIECT_SMC\MAINWINDOW.CPP
^C:\USERS\MEDEE\ONEDRIVE\DOCUMENTS\MEDEEA\FACULTATE\PROIECTSMC\PROIECT SMC\PROIECT_SMC\PROIECT_SMC\READER.CPP
/c /IX64\DEBUG\UIC /IX64\DEBUG\MOC /I"C:\USERS\MEDEE\ONEDRIVE\DOCUMENTS\MEDEEA\FACULTATE\PROIECTSMC\PROIECT SMC\PROIECT_SMC\PROIECT_SMC\X64\DEBUG\QMAKE\TEMP" /IC:\QT\6.2.1\MSVC2019_64\INCLUDE /IC:\QT\6.2.1\MSVC2019_64\INCLUDE\QTWIDGETS /IC:\QT\6.2.1\MSVC2019_64\INCLUDE\QTGUI /IC:\QT\6.2.1\MSVC2019_64\INCLUDE\QTSQL /IC:\QT\6.2.1\MSVC2019_64\INCLUDE\QTNETWORK /IC:\QT\6.2.1\MSVC2019_64\INCLUDE\QTCORE /I"C:\USERS\MEDEE\ONEDRIVE\DOCUMENTS\MEDEEA\FACULTATE\PROIECTSMC\PROIECT SMC\PROIECT_SMC\PROIECT_SMC\X64\DEBUG\QMAKE\TEMP" /I/INCLUDE /I"C:\QT\6.2.1\MSVC2019_64\MKSPECS\WIN32-MSVC" /IX64\DEBUG\MOC /IX64\DEBUG\UIC /Zi /nologo /W1 /WX- /diagnostics:column /Od /D _WINDOWS /D UNICODE /D _UNICODE /D WIN32 /D _ENABLE_EXTENDED_ALIGNED_STORAGE /D WIN64 /D QT_WIDGETS_LIB /D QT_GUI_LIB /D QT_SQL_LIB /D QT_NETWORK_LIB /D QT_CORE_LIB /Gm- /EHsc /MDd /GS /fp:precise /Zc:wchar_t /Zc:forScope /Zc:inline /std:c++17 /Fo"X64\DEBUG\\" /Fd"X64\DEBUG\VC142.PDB" /external:W1 /Gd /TP /FC /Zc:__cplusplus -Zc:rvalueCast -Zc:inline -Zc:strictStrings -Zc:throwingNew -permissive- -Zc:__cplusplus -Zc:externConstexpr -utf-8  C:\USERS\MEDEE\ONEDRIVE\DOCUMENTS\MEDEEA\FACULTATE\PROIECTSMC\PROIECT SMC\PROIECT_SMC\PROIECT_SMC\READER.CPP
^C:\USERS\MEDEE\ONEDRIVE\DOCUMENTS\MEDEEA\FACULTATE\PROIECTSMC\PROIECT SMC\PROIECT_SMC\PROIECT_SMC\X64\DEBUG\MOC\MOC_ACCOUNT.CPP
/c /IX64\DEBUG\UIC /IX64\DEBUG\MOC /I"C:\USERS\MEDEE\ONEDRIVE\DOCUMENTS\MEDEEA\FACULTATE\PROIECTSMC\PROIECT SMC\PROIECT_SMC\PROIECT_SMC\\" /I"C:\USERS\MEDEE\ONEDRIVE\DOCUMENTS\MEDEEA\FACULTATE\PROIECTSMC\PROIECT SMC\PROIECT_SMC\PROIECT_SMC\X64\DEBUG\QMAKE\TEMP" /IC:\QT\6.2.1\MSVC2019_64\INCLUDE /IC:\QT\6.2.1\MSVC2019_64\INCLUDE\QTWIDGETS /IC:\QT\6.2.1\MSVC2019_64\INCLUDE\QTGUI /IC:\QT\6.2.1\MSVC2019_64\INCLUDE\QTSQL /IC:\QT\6.2.1\MSVC2019_64\INCLUDE\QTNETWORK /IC:\QT\6.2.1\MSVC2019_64\INCLUDE\QTCORE /I"C:\USERS\MEDEE\ONEDRIVE\DOCUMENTS\MEDEEA\FACULTATE\PROIECTSMC\PROIECT SMC\PROIECT_SMC\PROIECT_SMC\X64\DEBUG\QMAKE\TEMP" /I/INCLUDE /I"C:\QT\6.2.1\MSVC2019_64\MKSPECS\WIN32-MSVC" /IX64\DEBUG\MOC /IX64\DEBUG\UIC /Zi /nologo /W1 /WX- /diagnostics:column /Od /D _WINDOWS /D UNICODE /D _UNICODE /D WIN32 /D _ENABLE_EXTENDED_ALIGNED_STORAGE /D WIN64 /D QT_WIDGETS_LIB /D QT_GUI_LIB /D QT_SQL_LIB /D QT_NETWORK_LIB /D QT_CORE_LIB /Gm- /EHsc /MDd /GS /fp:precise /Zc:wchar_t /Zc:forScope /Zc:inline /std:c++17 /Fo"X64\DEBUG\\" /Fd"X64\DEBUG\VC142.PDB" /external:W1 /Gd /TP /FC /Zc:__cplusplus -Zc:rvalueCast -Zc:inline -Zc:strictStrings -Zc:throwingNew -permissive- -Zc:__cplusplus -Zc:externConstexpr -utf-8  /Zc:__cplusplus -Zc:rvalueCast -Zc:inline -Zc:strictStrings -Zc:throwingNew -permissive- -Zc:__cplusplus -Zc:externConstexpr -utf-8 C:\USERS\MEDEE\ONEDRIVE\DOCUMENTS\MEDEEA\FACULTATE\PROIECTSMC\PROIECT SMC\PROIECT_SMC\PROIECT_SMC\X64\DEBUG\MOC\MOC_ACCOUNT.CPP
^C:\USERS\MEDEE\ONEDRIVE\DOCUMENTS\MEDEEA\FACULTATE\PROIECTSMC\PROIECT SMC\PROIECT_SMC\PROIECT_SMC\X64\DEBUG\MOC\MOC_BORROW.CPP
/c /IX64\DEBUG\UIC /IX64\DEBUG\MOC /I"C:\USERS\MEDEE\ONEDRIVE\DOCUMENTS\MEDEEA\FACULTATE\PROIECTSMC\PROIECT SMC\PROIECT_SMC\PROIECT_SMC\\" /I"C:\USERS\MEDEE\ONEDRIVE\DOCUMENTS\MEDEEA\FACULTATE\PROIECTSMC\PROIECT SMC\PROIECT_SMC\PROIECT_SMC\X64\DEBUG\QMAKE\TEMP" /IC:\QT\6.2.1\MSVC2019_64\INCLUDE /IC:\QT\6.2.1\MSVC2019_64\INCLUDE\QTWIDGETS /IC:\QT\6.2.1\MSVC2019_64\INCLUDE\QTGUI /IC:\QT\6.2.1\MSVC2019_64\INCLUDE\QTSQL /IC:\QT\6.2.1\MSVC2019_64\INCLUDE\QTNETWORK /IC:\QT\6.2.1\MSVC2019_64\INCLUDE\QTCORE /I"C:\USERS\MEDEE\ONEDRIVE\DOCUMENTS\MEDEEA\FACULTATE\PROIECTSMC\PROIECT SMC\PROIECT_SMC\PROIECT_SMC\X64\DEBUG\QMAKE\TEMP" /I/INCLUDE /I"C:\QT\6.2.1\MSVC2019_64\MKSPECS\WIN32-MSVC" /IX64\DEBUG\MOC /IX64\DEBUG\UIC /Zi /nologo /W1 /WX- /diagnostics:column /Od /D _WINDOWS /D UNICODE /D _UNICODE /D WIN32 /D _ENABLE_EXTENDED_ALIGNED_STORAGE /D WIN64 /D QT_WIDGETS_LIB /D QT_GUI_LIB /D QT_SQL_LIB /D QT_NETWORK_LIB /D QT_CORE_LIB /Gm- /EHsc /MDd /GS /fp:precise /Zc:wchar_t /Zc:forScope /Zc:inline /std:c++17 /Fo"X64\DEBUG\\" /Fd"X64\DEBUG\VC142.PDB" /external:W1 /Gd /TP /FC /Zc:__cplusplus -Zc:rvalueCast -Zc:inline -Zc:strictStrings -Zc:throwingNew -permissive- -Zc:__cplusplus -Zc:externConstexpr -utf-8  /Zc:__cplusplus -Zc:rvalueCast -Zc:inline -Zc:strictStrings -Zc:throwingNew -permissive- -Zc:__cplusplus -Zc:externConstexpr -utf-8 C:\USERS\MEDEE\ONEDRIVE\DOCUMENTS\MEDEEA\FACULTATE\PROIECTSMC\PROIECT SMC\PROIECT_SMC\PROIECT_SMC\X64\DEBUG\MOC\MOC_BORROW.CPP
^C:\USERS\MEDEE\ONEDRIVE\DOCUMENTS\MEDEEA\FACULTATE\PROIECTSMC\PROIECT SMC\PROIECT_SMC\PROIECT_SMC\X64\DEBUG\MOC\MOC_BORROWEDBOOKS.CPP
/c /IX64\DEBUG\UIC /IX64\DEBUG\MOC /I"C:\USERS\MEDEE\ONEDRIVE\DOCUMENTS\MEDEEA\FACULTATE\PROIECTSMC\PROIECT SMC\PROIECT_SMC\PROIECT_SMC\\" /I"C:\USERS\MEDEE\ONEDRIVE\DOCUMENTS\MEDEEA\FACULTATE\PROIECTSMC\PROIECT SMC\PROIECT_SMC\PROIECT_SMC\X64\DEBUG\QMAKE\TEMP" /IC:\QT\6.2.1\MSVC2019_64\INCLUDE /IC:\QT\6.2.1\MSVC2019_64\INCLUDE\QTWIDGETS /IC:\QT\6.2.1\MSVC2019_64\INCLUDE\QTGUI /IC:\QT\6.2.1\MSVC2019_64\INCLUDE\QTSQL /IC:\QT\6.2.1\MSVC2019_64\INCLUDE\QTNETWORK /IC:\QT\6.2.1\MSVC2019_64\INCLUDE\QTCORE /I"C:\USERS\MEDEE\ONEDRIVE\DOCUMENTS\MEDEEA\FACULTATE\PROIECTSMC\PROIECT SMC\PROIECT_SMC\PROIECT_SMC\X64\DEBUG\QMAKE\TEMP" /I/INCLUDE /I"C:\QT\6.2.1\MSVC2019_64\MKSPECS\WIN32-MSVC" /IX64\DEBUG\MOC /IX64\DEBUG\UIC /Zi /nologo /W1 /WX- /diagnostics:column /Od /D _WINDOWS /D UNICODE /D _UNICODE /D WIN32 /D _ENABLE_EXTENDED_ALIGNED_STORAGE /D WIN64 /D QT_WIDGETS_LIB /D QT_GUI_LIB /D QT_SQL_LIB /D QT_NETWORK_LIB /D QT_CORE_LIB /Gm- /EHsc /MDd /GS /fp:precise /Zc:wchar_t /Zc:forScope /Zc:inline /std:c++17 /Fo"X64\DEBUG\\" /Fd"X64\DEBUG\VC142.PDB" /external:W1 /Gd /TP /FC /Zc:__cplusplus -Zc:rvalueCast -Zc:inline -Zc:strictStrings -Zc:throwingNew -permissive- -Zc:__cplusplus -Zc:externConstexpr -utf-8  /Zc:__cplusplus -Zc:rvalueCast -Zc:inline -Zc:strictStrings -Zc:throwingNew -permissive- -Zc:__cplusplus -Zc:externConstexpr -utf-8 C:\USERS\MEDEE\ONEDRIVE\DOCUMENTS\MEDEEA\FACULTATE\PROIECTSMC\PROIECT SMC\PROIECT_SMC\PROIECT_SMC\X64\DEBUG\MOC\MOC_BORROWEDBOOKS.CPP
^C:\USERS\MEDEE\ONEDRIVE\DOCUMENTS\MEDEEA\FACULTATE\PROIECTSMC\PROIECT SMC\PROIECT_SMC\PROIECT_SMC\X64\DEBUG\MOC\MOC_MAINWINDOW.CPP
/c /IX64\DEBUG\UIC /IX64\DEBUG\MOC /I"C:\USERS\MEDEE\ONEDRIVE\DOCUMENTS\MEDEEA\FACULTATE\PROIECTSMC\PROIECT SMC\PROIECT_SMC\PROIECT_SMC\\" /I"C:\USERS\MEDEE\ONEDRIVE\DOCUMENTS\MEDEEA\FACULTATE\PROIECTSMC\PROIECT SMC\PROIECT_SMC\PROIECT_SMC\X64\DEBUG\QMAKE\TEMP" /IC:\QT\6.2.1\MSVC2019_64\INCLUDE /IC:\QT\6.2.1\MSVC2019_64\INCLUDE\QTWIDGETS /IC:\QT\6.2.1\MSVC2019_64\INCLUDE\QTGUI /IC:\QT\6.2.1\MSVC2019_64\INCLUDE\QTSQL /IC:\QT\6.2.1\MSVC2019_64\INCLUDE\QTNETWORK /IC:\QT\6.2.1\MSVC2019_64\INCLUDE\QTCORE /I"C:\USERS\MEDEE\ONEDRIVE\DOCUMENTS\MEDEEA\FACULTATE\PROIECTSMC\PROIECT SMC\PROIECT_SMC\PROIECT_SMC\X64\DEBUG\QMAKE\TEMP" /I/INCLUDE /I"C:\QT\6.2.1\MSVC2019_64\MKSPECS\WIN32-MSVC" /IX64\DEBUG\MOC /IX64\DEBUG\UIC /Zi /nologo /W1 /WX- /diagnostics:column /Od /D _WINDOWS /D UNICODE /D _UNICODE /D WIN32 /D _ENABLE_EXTENDED_ALIGNED_STORAGE /D WIN64 /D QT_WIDGETS_LIB /D QT_GUI_LIB /D QT_SQL_LIB /D QT_NETWORK_LIB /D QT_CORE_LIB /Gm- /EHsc /MDd /GS /fp:precise /Zc:wchar_t /Zc:forScope /Zc:inline /std:c++17 /Fo"X64\DEBUG\\" /Fd"X64\DEBUG\VC142.PDB" /external:W1 /Gd /TP /FC /Zc:__cplusplus -Zc:rvalueCast -Zc:inline -Zc:strictStrings -Zc:throwingNew -permissive- -Zc:__cplusplus -Zc:externConstexpr -utf-8  /Zc:__cplusplus -Zc:rvalueCast -Zc:inline -Zc:strictStrings -Zc:throwingNew -permissive- -Zc:__cplusplus -Zc:externConstexpr -utf-8 C:\USERS\MEDEE\ONEDRIVE\DOCUMENTS\MEDEEA\FACULTATE\PROIECTSMC\PROIECT SMC\PROIECT_SMC\PROIECT_SMC\X64\DEBUG\MOC\MOC_MAINWINDOW.CPP
^C:\USERS\MEDEE\ONEDRIVE\DOCUMENTS\MEDEEA\FACULTATE\PROIECTSMC\PROIECT SMC\PROIECT_SMC\PROIECT_SMC\X64\DEBUG\MOC\MOC_READER.CPP
/c /IX64\DEBUG\UIC /IX64\DEBUG\MOC /I"C:\USERS\MEDEE\ONEDRIVE\DOCUMENTS\MEDEEA\FACULTATE\PROIECTSMC\PROIECT SMC\PROIECT_SMC\PROIECT_SMC\\" /I"C:\USERS\MEDEE\ONEDRIVE\DOCUMENTS\MEDEEA\FACULTATE\PROIECTSMC\PROIECT SMC\PROIECT_SMC\PROIECT_SMC\X64\DEBUG\QMAKE\TEMP" /IC:\QT\6.2.1\MSVC2019_64\INCLUDE /IC:\QT\6.2.1\MSVC2019_64\INCLUDE\QTWIDGETS /IC:\QT\6.2.1\MSVC2019_64\INCLUDE\QTGUI /IC:\QT\6.2.1\MSVC2019_64\INCLUDE\QTSQL /IC:\QT\6.2.1\MSVC2019_64\INCLUDE\QTNETWORK /IC:\QT\6.2.1\MSVC2019_64\INCLUDE\QTCORE /I"C:\USERS\MEDEE\ONEDRIVE\DOCUMENTS\MEDEEA\FACULTATE\PROIECTSMC\PROIECT SMC\PROIECT_SMC\PROIECT_SMC\X64\DEBUG\QMAKE\TEMP" /I/INCLUDE /I"C:\QT\6.2.1\MSVC2019_64\MKSPECS\WIN32-MSVC" /IX64\DEBUG\MOC /IX64\DEBUG\UIC /Zi /nologo /W1 /WX- /diagnostics:column /Od /D _WINDOWS /D UNICODE /D _UNICODE /D WIN32 /D _ENABLE_EXTENDED_ALIGNED_STORAGE /D WIN64 /D QT_WIDGETS_LIB /D QT_GUI_LIB /D QT_SQL_LIB /D QT_NETWORK_LIB /D QT_CORE_LIB /Gm- /EHsc /MDd /GS /fp:precise /Zc:wchar_t /Zc:forScope /Zc:inline /std:c++17 /Fo"X64\DEBUG\\" /Fd"X64\DEBUG\VC142.PDB" /external:W1 /Gd /TP /FC /Zc:__cplusplus -Zc:rvalueCast -Zc:inline -Zc:strictStrings -Zc:throwingNew -permissive- -Zc:__cplusplus -Zc:externConstexpr -utf-8  /Zc:__cplusplus -Zc:rvalueCast -Zc:inline -Zc:strictStrings -Zc:throwingNew -permissive- -Zc:__cplusplus -Zc:externConstexpr -utf-8 C:\USERS\MEDEE\ONEDRIVE\DOCUMENTS\MEDEEA\FACULTATE\PROIECTSMC\PROIECT SMC\PROIECT_SMC\PROIECT_SMC\X64\DEBUG\MOC\MOC_READER.CPP
^C:\USERS\MEDEE\ONEDRIVE\DOCUMENTS\MEDEEA\FACULTATE\PROIECTSMC\PROIECT SMC\PROIECT_SMC\PROIECT_SMC\MANAGEACCOUNT.CPP
/c /IX64\DEBUG\UIC /IX64\DEBUG\MOC /I"C:\USERS\MEDEE\ONEDRIVE\DOCUMENTS\MEDEEA\FACULTATE\PROIECTSMC\PROIECT SMC\PROIECT_SMC\PROIECT_SMC\X64\DEBUG\QMAKE\TEMP" /IC:\QT\6.2.1\MSVC2019_64\INCLUDE /IC:\QT\6.2.1\MSVC2019_64\INCLUDE\QTWIDGETS /IC:\QT\6.2.1\MSVC2019_64\INCLUDE\QTGUI /IC:\QT\6.2.1\MSVC2019_64\INCLUDE\QTSQL /IC:\QT\6.2.1\MSVC2019_64\INCLUDE\QTNETWORK /IC:\QT\6.2.1\MSVC2019_64\INCLUDE\QTCORE /I"C:\USERS\MEDEE\ONEDRIVE\DOCUMENTS\MEDEEA\FACULTATE\PROIECTSMC\PROIECT SMC\PROIECT_SMC\PROIECT_SMC\X64\DEBUG\QMAKE\TEMP" /I/INCLUDE /I"C:\QT\6.2.1\MSVC2019_64\MKSPECS\WIN32-MSVC" /IX64\DEBUG\MOC /IX64\DEBUG\UIC /Zi /nologo /W1 /WX- /diagnostics:column /Od /D _WINDOWS /D UNICODE /D _UNICODE /D WIN32 /D _ENABLE_EXTENDED_ALIGNED_STORAGE /D WIN64 /D QT_WIDGETS_LIB /D QT_GUI_LIB /D QT_SQL_LIB /D QT_NETWORK_LIB /D QT_CORE_LIB /Gm- /EHsc /MDd /GS /fp:precise /Zc:wchar_t /Zc:forScope /Zc:inline /std:c++17 /Fo"X64\DEBUG\\" /Fd"X64\DEBUG\VC142.PDB" /external:W1 /Gd /TP /FC /Zc:__cplusplus -Zc:rvalueCast -Zc:inline -Zc:strictStrings -Zc:throwingNew -permissive- -Zc:__cplusplus -Zc:externConstexpr -utf-8  C:\USERS\MEDEE\ONEDRIVE\DOCUMENTS\MEDEEA\FACULTATE\PROIECTSMC\PROIECT SMC\PROIECT_SMC\PROIECT_SMC\MANAGEACCOUNT.CPP
^C:\USERS\MEDEE\ONEDRIVE\DOCUMENTS\MEDEEA\FACULTATE\LIBRARY_FLORESCUMEDEEA\PROIECT_SMC\PROIECT_SMC\ACCOUNT.CPP
/c /IX64\DEBUG\UIC /IX64\DEBUG\MOC /IC:\USERS\MEDEE\ONEDRIVE\DOCUMENTS\MEDEEA\FACULTATE\LIBRARY_FLORESCUMEDEEA\PROIECT_SMC\PROIECT_SMC\X64\DEBUG\QMAKE\TEMP /IC:\QT\6.2.1\MSVC2019_64\INCLUDE /IC:\QT\6.2.1\MSVC2019_64\INCLUDE\QTWIDGETS /IC:\QT\6.2.1\MSVC2019_64\INCLUDE\QTGUI /IC:\QT\6.2.1\MSVC2019_64\INCLUDE\QTSQL /IC:\QT\6.2.1\MSVC2019_64\INCLUDE\QTNETWORK /IC:\QT\6.2.1\MSVC2019_64\INCLUDE\QTCORE /IC:\USERS\MEDEE\ONEDRIVE\DOCUMENTS\MEDEEA\FACULTATE\LIBRARY_FLORESCUMEDEEA\PROIECT_SMC\PROIECT_SMC\X64\DEBUG\QMAKE\TEMP /I/INCLUDE /I"C:\QT\6.2.1\MSVC2019_64\MKSPECS\WIN32-MSVC" /IX64\DEBUG\MOC /IX64\DEBUG\UIC /Zi /nologo /W1 /WX- /diagnostics:column /Od /D _WINDOWS /D UNICODE /D _UNICODE /D WIN32 /D _ENABLE_EXTENDED_ALIGNED_STORAGE /D WIN64 /D QT_WIDGETS_LIB /D QT_GUI_LIB /D QT_SQL_LIB /D QT_NETWORK_LIB /D QT_CORE_LIB /Gm- /EHsc /MDd /GS /fp:precise /Zc:wchar_t /Zc:forScope /Zc:inline /std:c++17 /Fo"X64\DEBUG\\" /Fd"X64\DEBUG\VC142.PDB" /external:W1 /Gd /TP /FC /Zc:__cplusplus -Zc:rvalueCast -Zc:inline -Zc:strictStrings -Zc:throwingNew -permissive- -Zc:__cplusplus -Zc:externConstexpr -utf-8  C:\USERS\MEDEE\ONEDRIVE\DOCUMENTS\MEDEEA\FACULTATE\LIBRARY_FLORESCUMEDEEA\PROIECT_SMC\PROIECT_SMC\ACCOUNT.CPP
^C:\USERS\MEDEE\ONEDRIVE\DOCUMENTS\MEDEEA\FACULTATE\LIBRARY_FLORESCUMEDEEA\PROIECT_SMC\PROIECT_SMC\BORROWEDBOOKS.CPP
/c /IX64\DEBUG\UIC /IX64\DEBUG\MOC /IC:\USERS\MEDEE\ONEDRIVE\DOCUMENTS\MEDEEA\FACULTATE\LIBRARY_FLORESCUMEDEEA\PROIECT_SMC\PROIECT_SMC\X64\DEBUG\QMAKE\TEMP /IC:\QT\6.2.1\MSVC2019_64\INCLUDE /IC:\QT\6.2.1\MSVC2019_64\INCLUDE\QTWIDGETS /IC:\QT\6.2.1\MSVC2019_64\INCLUDE\QTGUI /IC:\QT\6.2.1\MSVC2019_64\INCLUDE\QTSQL /IC:\QT\6.2.1\MSVC2019_64\INCLUDE\QTNETWORK /IC:\QT\6.2.1\MSVC2019_64\INCLUDE\QTCORE /IC:\USERS\MEDEE\ONEDRIVE\DOCUMENTS\MEDEEA\FACULTATE\LIBRARY_FLORESCUMEDEEA\PROIECT_SMC\PROIECT_SMC\X64\DEBUG\QMAKE\TEMP /I/INCLUDE /I"C:\QT\6.2.1\MSVC2019_64\MKSPECS\WIN32-MSVC" /IX64\DEBUG\MOC /IX64\DEBUG\UIC /Zi /nologo /W1 /WX- /diagnostics:column /Od /D _WINDOWS /D UNICODE /D _UNICODE /D WIN32 /D _ENABLE_EXTENDED_ALIGNED_STORAGE /D WIN64 /D QT_WIDGETS_LIB /D QT_GUI_LIB /D QT_SQL_LIB /D QT_NETWORK_LIB /D QT_CORE_LIB /Gm- /EHsc /MDd /GS /fp:precise /Zc:wchar_t /Zc:forScope /Zc:inline /std:c++17 /Fo"X64\DEBUG\\" /Fd"X64\DEBUG\VC142.PDB" /external:W1 /Gd /TP /FC /Zc:__cplusplus -Zc:rvalueCast -Zc:inline -Zc:strictStrings -Zc:throwingNew -permissive- -Zc:__cplusplus -Zc:externConstexpr -utf-8  C:\USERS\MEDEE\ONEDRIVE\DOCUMENTS\MEDEEA\FACULTATE\LIBRARY_FLORESCUMEDEEA\PROIECT_SMC\PROIECT_SMC\BORROWEDBOOKS.CPP
^C:\USERS\MEDEE\ONEDRIVE\DOCUMENTS\MEDEEA\FACULTATE\LIBRARY_FLORESCUMEDEEA\PROIECT_SMC\PROIECT_SMC\MANAGEACCOUNT.CPP
/c /IX64\DEBUG\UIC /IX64\DEBUG\MOC /IC:\USERS\MEDEE\ONEDRIVE\DOCUMENTS\MEDEEA\FACULTATE\LIBRARY_FLORESCUMEDEEA\PROIECT_SMC\PROIECT_SMC\X64\DEBUG\QMAKE\TEMP /IC:\QT\6.2.1\MSVC2019_64\INCLUDE /IC:\QT\6.2.1\MSVC2019_64\INCLUDE\QTWIDGETS /IC:\QT\6.2.1\MSVC2019_64\INCLUDE\QTGUI /IC:\QT\6.2.1\MSVC2019_64\INCLUDE\QTSQL /IC:\QT\6.2.1\MSVC2019_64\INCLUDE\QTNETWORK /IC:\QT\6.2.1\MSVC2019_64\INCLUDE\QTCORE /IC:\USERS\MEDEE\ONEDRIVE\DOCUMENTS\MEDEEA\FACULTATE\LIBRARY_FLORESCUMEDEEA\PROIECT_SMC\PROIECT_SMC\X64\DEBUG\QMAKE\TEMP /I/INCLUDE /I"C:\QT\6.2.1\MSVC2019_64\MKSPECS\WIN32-MSVC" /IX64\DEBUG\MOC /IX64\DEBUG\UIC /Zi /nologo /W1 /WX- /diagnostics:column /Od /D _WINDOWS /D UNICODE /D _UNICODE /D WIN32 /D _ENABLE_EXTENDED_ALIGNED_STORAGE /D WIN64 /D QT_WIDGETS_LIB /D QT_GUI_LIB /D QT_SQL_LIB /D QT_NETWORK_LIB /D QT_CORE_LIB /Gm- /EHsc /MDd /GS /fp:precise /Zc:wchar_t /Zc:forScope /Zc:inline /std:c++17 /Fo"X64\DEBUG\\" /Fd"X64\DEBUG\VC142.PDB" /external:W1 /Gd /TP /FC /Zc:__cplusplus -Zc:rvalueCast -Zc:inline -Zc:strictStrings -Zc:throwingNew -permissive- -Zc:__cplusplus -Zc:externConstexpr -utf-8  C:\USERS\MEDEE\ONEDRIVE\DOCUMENTS\MEDEEA\FACULTATE\LIBRARY_FLORESCUMEDEEA\PROIECT_SMC\PROIECT_SMC\MANAGEACCOUNT.CPP
^C:\USERS\MEDEE\ONEDRIVE\DOCUMENTS\MEDEEA\FACULTATE\LIBRARY_FLORESCUMEDEEA\PROIECT_SMC\PROIECT_SMC\READER.CPP
/c /IX64\DEBUG\UIC /IX64\DEBUG\MOC /IC:\USERS\MEDEE\ONEDRIVE\DOCUMENTS\MEDEEA\FACULTATE\LIBRARY_FLORESCUMEDEEA\PROIECT_SMC\PROIECT_SMC\X64\DEBUG\QMAKE\TEMP /IC:\QT\6.2.1\MSVC2019_64\INCLUDE /IC:\QT\6.2.1\MSVC2019_64\INCLUDE\QTWIDGETS /IC:\QT\6.2.1\MSVC2019_64\INCLUDE\QTGUI /IC:\QT\6.2.1\MSVC2019_64\INCLUDE\QTSQL /IC:\QT\6.2.1\MSVC2019_64\INCLUDE\QTNETWORK /IC:\QT\6.2.1\MSVC2019_64\INCLUDE\QTCORE /IC:\USERS\MEDEE\ONEDRIVE\DOCUMENTS\MEDEEA\FACULTATE\LIBRARY_FLORESCUMEDEEA\PROIECT_SMC\PROIECT_SMC\X64\DEBUG\QMAKE\TEMP /I/INCLUDE /I"C:\QT\6.2.1\MSVC2019_64\MKSPECS\WIN32-MSVC" /IX64\DEBUG\MOC /IX64\DEBUG\UIC /Zi /nologo /W1 /WX- /diagnostics:column /Od /D _WINDOWS /D UNICODE /D _UNICODE /D WIN32 /D _ENABLE_EXTENDED_ALIGNED_STORAGE /D WIN64 /D QT_WIDGETS_LIB /D QT_GUI_LIB /D QT_SQL_LIB /D QT_NETWORK_LIB /D QT_CORE_LIB /Gm- /EHsc /MDd /GS /fp:precise /Zc:wchar_t /Zc:forScope /Zc:inline /std:c++17 /Fo"X64\DEBUG\\" /Fd"X64\DEBUG\VC142.PDB" /external:W1 /Gd /TP /FC /Zc:__cplusplus -Zc:rvalueCast -Zc:inline -Zc:strictStrings -Zc:throwingNew -permissive- -Zc:__cplusplus -Zc:externConstexpr -utf-8  C:\USERS\MEDEE\ONEDRIVE\DOCUMENTS\MEDEEA\FACULTATE\LIBRARY_FLORESCUMEDEEA\PROIECT_SMC\PROIECT_SMC\READER.CPP
^C:\USERS\MEDEE\ONEDRIVE\DOCUMENTS\MEDEEA\FACULTATE\LIBRARY_FLORESCUMEDEEA\PROIECT_SMC\PROIECT_SMC\BORROW.CPP
/c /IX64\DEBUG\UIC /IX64\DEBUG\MOC /IC:\USERS\MEDEE\ONEDRIVE\DOCUMENTS\MEDEEA\FACULTATE\LIBRARY_FLORESCUMEDEEA\PROIECT_SMC\PROIECT_SMC\X64\DEBUG\QMAKE\TEMP /IC:\QT\6.2.1\MSVC2019_64\INCLUDE /IC:\QT\6.2.1\MSVC2019_64\INCLUDE\QTWIDGETS /IC:\QT\6.2.1\MSVC2019_64\INCLUDE\QTGUI /IC:\QT\6.2.1\MSVC2019_64\INCLUDE\QTSQL /IC:\QT\6.2.1\MSVC2019_64\INCLUDE\QTNETWORK /IC:\QT\6.2.1\MSVC2019_64\INCLUDE\QTCORE /IC:\USERS\MEDEE\ONEDRIVE\DOCUMENTS\MEDEEA\FACULTATE\LIBRARY_FLORESCUMEDEEA\PROIECT_SMC\PROIECT_SMC\X64\DEBUG\QMAKE\TEMP /I/INCLUDE /I"C:\QT\6.2.1\MSVC2019_64\MKSPECS\WIN32-MSVC" /IX64\DEBUG\MOC /IX64\DEBUG\UIC /Zi /nologo /W1 /WX- /diagnostics:column /Od /D _WINDOWS /D UNICODE /D _UNICODE /D WIN32 /D _ENABLE_EXTENDED_ALIGNED_STORAGE /D WIN64 /D QT_WIDGETS_LIB /D QT_GUI_LIB /D QT_SQL_LIB /D QT_NETWORK_LIB /D QT_CORE_LIB /Gm- /EHsc /MDd /GS /fp:precise /Zc:wchar_t /Zc:forScope /Zc:inline /std:c++17 /Fo"X64\DEBUG\\" /Fd"X64\DEBUG\VC142.PDB" /external:W1 /Gd /TP /FC /Zc:__cplusplus -Zc:rvalueCast -Zc:inline -Zc:strictStrings -Zc:throwingNew -permissive- -Zc:__cplusplus -Zc:externConstexpr -utf-8  C:\USERS\MEDEE\ONEDRIVE\DOCUMENTS\MEDEEA\FACULTATE\LIBRARY_FLORESCUMEDEEA\PROIECT_SMC\PROIECT_SMC\BORROW.CPP
^C:\USERS\MEDEE\ONEDRIVE\DOCUMENTS\MEDEEA\FACULTATE\LIBRARY_FLORESCUMEDEEA\PROIECT_SMC\PROIECT_SMC\MAINWINDOW.CPP
/c /IX64\DEBUG\UIC /IX64\DEBUG\MOC /IC:\USERS\MEDEE\ONEDRIVE\DOCUMENTS\MEDEEA\FACULTATE\LIBRARY_FLORESCUMEDEEA\PROIECT_SMC\PROIECT_SMC\X64\DEBUG\QMAKE\TEMP /IC:\QT\6.2.1\MSVC2019_64\INCLUDE /IC:\QT\6.2.1\MSVC2019_64\INCLUDE\QTWIDGETS /IC:\QT\6.2.1\MSVC2019_64\INCLUDE\QTGUI /IC:\QT\6.2.1\MSVC2019_64\INCLUDE\QTSQL /IC:\QT\6.2.1\MSVC2019_64\INCLUDE\QTNETWORK /IC:\QT\6.2.1\MSVC2019_64\INCLUDE\QTCORE /IC:\USERS\MEDEE\ONEDRIVE\DOCUMENTS\MEDEEA\FACULTATE\LIBRARY_FLORESCUMEDEEA\PROIECT_SMC\PROIECT_SMC\X64\DEBUG\QMAKE\TEMP /I/INCLUDE /I"C:\QT\6.2.1\MSVC2019_64\MKSPECS\WIN32-MSVC" /IX64\DEBUG\MOC /IX64\DEBUG\UIC /Zi /nologo /W1 /WX- /diagnostics:column /Od /D _WINDOWS /D UNICODE /D _UNICODE /D WIN32 /D _ENABLE_EXTENDED_ALIGNED_STORAGE /D WIN64 /D QT_WIDGETS_LIB /D QT_GUI_LIB /D QT_SQL_LIB /D QT_NETWORK_LIB /D QT_CORE_LIB /Gm- /EHsc /MDd /GS /fp:precise /Zc:wchar_t /Zc:forScope /Zc:inline /std:c++17 /Fo"X64\DEBUG\\" /Fd"X64\DEBUG\VC142.PDB" /external:W1 /Gd /TP /FC /Zc:__cplusplus -Zc:rvalueCast -Zc:inline -Zc:strictStrings -Zc:throwingNew -permissive- -Zc:__cplusplus -Zc:externConstexpr -utf-8  C:\USERS\MEDEE\ONEDRIVE\DOCUMENTS\MEDEEA\FACULTATE\LIBRARY_FLORESCUMEDEEA\PROIECT_SMC\PROIECT_SMC\MAINWINDOW.CPP
^C:\USERS\MEDEE\ONEDRIVE\DOCUMENTS\MEDEEA\FACULTATE\LIBRARY_FLORESCUMEDEEA\PROIECT_SMC\PROIECT_SMC\MAIN.CPP
/c /IX64\DEBUG\UIC /IX64\DEBUG\MOC /IC:\USERS\MEDEE\ONEDRIVE\DOCUMENTS\MEDEEA\FACULTATE\LIBRARY_FLORESCUMEDEEA\PROIECT_SMC\PROIECT_SMC\X64\DEBUG\QMAKE\TEMP /IC:\QT\6.2.1\MSVC2019_64\INCLUDE /IC:\QT\6.2.1\MSVC2019_64\INCLUDE\QTWIDGETS /IC:\QT\6.2.1\MSVC2019_64\INCLUDE\QTGUI /IC:\QT\6.2.1\MSVC2019_64\INCLUDE\QTSQL /IC:\QT\6.2.1\MSVC2019_64\INCLUDE\QTNETWORK /IC:\QT\6.2.1\MSVC2019_64\INCLUDE\QTCORE /IC:\USERS\MEDEE\ONEDRIVE\DOCUMENTS\MEDEEA\FACULTATE\LIBRARY_FLORESCUMEDEEA\PROIECT_SMC\PROIECT_SMC\X64\DEBUG\QMAKE\TEMP /I/INCLUDE /I"C:\QT\6.2.1\MSVC2019_64\MKSPECS\WIN32-MSVC" /IX64\DEBUG\MOC /IX64\DEBUG\UIC /Zi /nologo /W1 /WX- /diagnostics:column /Od /D _WINDOWS /D UNICODE /D _UNICODE /D WIN32 /D _ENABLE_EXTENDED_ALIGNED_STORAGE /D WIN64 /D QT_WIDGETS_LIB /D QT_GUI_LIB /D QT_SQL_LIB /D QT_NETWORK_LIB /D QT_CORE_LIB /Gm- /EHsc /MDd /GS /fp:precise /Zc:wchar_t /Zc:forScope /Zc:inline /std:c++17 /Fo"X64\DEBUG\\" /Fd"X64\DEBUG\VC142.PDB" /external:W1 /Gd /TP /FC /Zc:__cplusplus -Zc:rvalueCast -Zc:inline -Zc:strictStrings -Zc:throwingNew -permissive- -Zc:__cplusplus -Zc:externConstexpr -utf-8  C:\USERS\MEDEE\ONEDRIVE\DOCUMENTS\MEDEEA\FACULTATE\LIBRARY_FLORESCUMEDEEA\PROIECT_SMC\PROIECT_SMC\MAIN.CPP
^C:\USERS\MEDEE\ONEDRIVE\DOCUMENTS\MEDEEA\FACULTATE\LIBRARY_FLORESCUMEDEEA\PROIECT_SMC\PROIECT_SMC\X64\DEBUG\MOC\MOC_BORROW.CPP
/c /IX64\DEBUG\UIC /IX64\DEBUG\MOC /IC:\USERS\MEDEE\ONEDRIVE\DOCUMENTS\MEDEEA\FACULTATE\LIBRARY_FLORESCUMEDEEA\PROIECT_SMC\PROIECT_SMC\ /IC:\USERS\MEDEE\ONEDRIVE\DOCUMENTS\MEDEEA\FACULTATE\LIBRARY_FLORESCUMEDEEA\PROIECT_SMC\PROIECT_SMC\X64\DEBUG\QMAKE\TEMP /IC:\QT\6.2.1\MSVC2019_64\INCLUDE /IC:\QT\6.2.1\MSVC2019_64\INCLUDE\QTWIDGETS /IC:\QT\6.2.1\MSVC2019_64\INCLUDE\QTGUI /IC:\QT\6.2.1\MSVC2019_64\INCLUDE\QTSQL /IC:\QT\6.2.1\MSVC2019_64\INCLUDE\QTNETWORK /IC:\QT\6.2.1\MSVC2019_64\INCLUDE\QTCORE /IC:\USERS\MEDEE\ONEDRIVE\DOCUMENTS\MEDEEA\FACULTATE\LIBRARY_FLORESCUMEDEEA\PROIECT_SMC\PROIECT_SMC\X64\DEBUG\QMAKE\TEMP /I/INCLUDE /I"C:\QT\6.2.1\MSVC2019_64\MKSPECS\WIN32-MSVC" /IX64\DEBUG\MOC /IX64\DEBUG\UIC /Zi /nologo /W1 /WX- /diagnostics:column /Od /D _WINDOWS /D UNICODE /D _UNICODE /D WIN32 /D _ENABLE_EXTENDED_ALIGNED_STORAGE /D WIN64 /D QT_WIDGETS_LIB /D QT_GUI_LIB /D QT_SQL_LIB /D QT_NETWORK_LIB /D QT_CORE_LIB /Gm- /EHsc /MDd /GS /fp:precise /Zc:wchar_t /Zc:forScope /Zc:inline /std:c++17 /Fo"X64\DEBUG\\" /Fd"X64\DEBUG\VC142.PDB" /external:W1 /Gd /TP /FC /Zc:__cplusplus -Zc:rvalueCast -Zc:inline -Zc:strictStrings -Zc:throwingNew -permissive- -Zc:__cplusplus -Zc:externConstexpr -utf-8  /Zc:__cplusplus -Zc:rvalueCast -Zc:inline -Zc:strictStrings -Zc:throwingNew -permissive- -Zc:__cplusplus -Zc:externConstexpr -utf-8 C:\USERS\MEDEE\ONEDRIVE\DOCUMENTS\MEDEEA\FACULTATE\LIBRARY_FLORESCUMEDEEA\PROIECT_SMC\PROIECT_SMC\X64\DEBUG\MOC\MOC_BORROW.CPP
^C:\USERS\MEDEE\ONEDRIVE\DOCUMENTS\MEDEEA\FACULTATE\LIBRARY_FLORESCUMEDEEA\PROIECT_SMC\PROIECT_SMC\X64\DEBUG\MOC\MOC_BORROWEDBOOKS.CPP
/c /IX64\DEBUG\UIC /IX64\DEBUG\MOC /IC:\USERS\MEDEE\ONEDRIVE\DOCUMENTS\MEDEEA\FACULTATE\LIBRARY_FLORESCUMEDEEA\PROIECT_SMC\PROIECT_SMC\ /IC:\USERS\MEDEE\ONEDRIVE\DOCUMENTS\MEDEEA\FACULTATE\LIBRARY_FLORESCUMEDEEA\PROIECT_SMC\PROIECT_SMC\X64\DEBUG\QMAKE\TEMP /IC:\QT\6.2.1\MSVC2019_64\INCLUDE /IC:\QT\6.2.1\MSVC2019_64\INCLUDE\QTWIDGETS /IC:\QT\6.2.1\MSVC2019_64\INCLUDE\QTGUI /IC:\QT\6.2.1\MSVC2019_64\INCLUDE\QTSQL /IC:\QT\6.2.1\MSVC2019_64\INCLUDE\QTNETWORK /IC:\QT\6.2.1\MSVC2019_64\INCLUDE\QTCORE /IC:\USERS\MEDEE\ONEDRIVE\DOCUMENTS\MEDEEA\FACULTATE\LIBRARY_FLORESCUMEDEEA\PROIECT_SMC\PROIECT_SMC\X64\DEBUG\QMAKE\TEMP /I/INCLUDE /I"C:\QT\6.2.1\MSVC2019_64\MKSPECS\WIN32-MSVC" /IX64\DEBUG\MOC /IX64\DEBUG\UIC /Zi /nologo /W1 /WX- /diagnostics:column /Od /D _WINDOWS /D UNICODE /D _UNICODE /D WIN32 /D _ENABLE_EXTENDED_ALIGNED_STORAGE /D WIN64 /D QT_WIDGETS_LIB /D QT_GUI_LIB /D QT_SQL_LIB /D QT_NETWORK_LIB /D QT_CORE_LIB /Gm- /EHsc /MDd /GS /fp:precise /Zc:wchar_t /Zc:forScope /Zc:inline /std:c++17 /Fo"X64\DEBUG\\" /Fd"X64\DEBUG\VC142.PDB" /external:W1 /Gd /TP /FC /Zc:__cplusplus -Zc:rvalueCast -Zc:inline -Zc:strictStrings -Zc:throwingNew -permissive- -Zc:__cplusplus -Zc:externConstexpr -utf-8  /Zc:__cplusplus -Zc:rvalueCast -Zc:inline -Zc:strictStrings -Zc:throwingNew -permissive- -Zc:__cplusplus -Zc:externConstexpr -utf-8 C:\USERS\MEDEE\ONEDRIVE\DOCUMENTS\MEDEEA\FACULTATE\LIBRARY_FLORESCUMEDEEA\PROIECT_SMC\PROIECT_SMC\X64\DEBUG\MOC\MOC_BORROWEDBOOKS.CPP
^C:\USERS\MEDEE\ONEDRIVE\DOCUMENTS\MEDEEA\FACULTATE\LIBRARY_FLORESCUMEDEEA\PROIECT_SMC\PROIECT_SMC\X64\DEBUG\MOC\MOC_READER.CPP
/c /IX64\DEBUG\UIC /IX64\DEBUG\MOC /IC:\USERS\MEDEE\ONEDRIVE\DOCUMENTS\MEDEEA\FACULTATE\LIBRARY_FLORESCUMEDEEA\PROIECT_SMC\PROIECT_SMC\ /IC:\USERS\MEDEE\ONEDRIVE\DOCUMENTS\MEDEEA\FACULTATE\LIBRARY_FLORESCUMEDEEA\PROIECT_SMC\PROIECT_SMC\X64\DEBUG\QMAKE\TEMP /IC:\QT\6.2.1\MSVC2019_64\INCLUDE /IC:\QT\6.2.1\MSVC2019_64\INCLUDE\QTWIDGETS /IC:\QT\6.2.1\MSVC2019_64\INCLUDE\QTGUI /IC:\QT\6.2.1\MSVC2019_64\INCLUDE\QTSQL /IC:\QT\6.2.1\MSVC2019_64\INCLUDE\QTNETWORK /IC:\QT\6.2.1\MSVC2019_64\INCLUDE\QTCORE /IC:\USERS\MEDEE\ONEDRIVE\DOCUMENTS\MEDEEA\FACULTATE\LIBRARY_FLORESCUMEDEEA\PROIECT_SMC\PROIECT_SMC\X64\DEBUG\QMAKE\TEMP /I/INCLUDE /I"C:\QT\6.2.1\MSVC2019_64\MKSPECS\WIN32-MSVC" /IX64\DEBUG\MOC /IX64\DEBUG\UIC /Zi /nologo /W1 /WX- /diagnostics:column /Od /D _WINDOWS /D UNICODE /D _UNICODE /D WIN32 /D _ENABLE_EXTENDED_ALIGNED_STORAGE /D WIN64 /D QT_WIDGETS_LIB /D QT_GUI_LIB /D QT_SQL_LIB /D QT_NETWORK_LIB /D QT_CORE_LIB /Gm- /EHsc /MDd /GS /fp:precise /Zc:wchar_t /Zc:forScope /Zc:inline /std:c++17 /Fo"X64\DEBUG\\" /Fd"X64\DEBUG\VC142.PDB" /external:W1 /Gd /TP /FC /Zc:__cplusplus -Zc:rvalueCast -Zc:inline -Zc:strictStrings -Zc:throwingNew -permissive- -Zc:__cplusplus -Zc:externConstexpr -utf-8  /Zc:__cplusplus -Zc:rvalueCast -Zc:inline -Zc:strictStrings -Zc:throwingNew -permissive- -Zc:__cplusplus -Zc:externConstexpr -utf-8 C:\USERS\MEDEE\ONEDRIVE\DOCUMENTS\MEDEEA\FACULTATE\LIBRARY_FLORESCUMEDEEA\PROIECT_SMC\PROIECT_SMC\X64\DEBUG\MOC\MOC_READER.CPP
^C:\USERS\MEDEE\ONEDRIVE\DOCUMENTS\MEDEEA\FACULTATE\LIBRARY_FLORESCUMEDEEA\PROIECT_SMC\PROIECT_SMC\X64\DEBUG\MOC\MOC_MAINWINDOW.CPP
/c /IX64\DEBUG\UIC /IX64\DEBUG\MOC /IC:\USERS\MEDEE\ONEDRIVE\DOCUMENTS\MEDEEA\FACULTATE\LIBRARY_FLORESCUMEDEEA\PROIECT_SMC\PROIECT_SMC\ /IC:\USERS\MEDEE\ONEDRIVE\DOCUMENTS\MEDEEA\FACULTATE\LIBRARY_FLORESCUMEDEEA\PROIECT_SMC\PROIECT_SMC\X64\DEBUG\QMAKE\TEMP /IC:\QT\6.2.1\MSVC2019_64\INCLUDE /IC:\QT\6.2.1\MSVC2019_64\INCLUDE\QTWIDGETS /IC:\QT\6.2.1\MSVC2019_64\INCLUDE\QTGUI /IC:\QT\6.2.1\MSVC2019_64\INCLUDE\QTSQL /IC:\QT\6.2.1\MSVC2019_64\INCLUDE\QTNETWORK /IC:\QT\6.2.1\MSVC2019_64\INCLUDE\QTCORE /IC:\USERS\MEDEE\ONEDRIVE\DOCUMENTS\MEDEEA\FACULTATE\LIBRARY_FLORESCUMEDEEA\PROIECT_SMC\PROIECT_SMC\X64\DEBUG\QMAKE\TEMP /I/INCLUDE /I"C:\QT\6.2.1\MSVC2019_64\MKSPECS\WIN32-MSVC" /IX64\DEBUG\MOC /IX64\DEBUG\UIC /Zi /nologo /W1 /WX- /diagnostics:column /Od /D _WINDOWS /D UNICODE /D _UNICODE /D WIN32 /D _ENABLE_EXTENDED_ALIGNED_STORAGE /D WIN64 /D QT_WIDGETS_LIB /D QT_GUI_LIB /D QT_SQL_LIB /D QT_NETWORK_LIB /D QT_CORE_LIB /Gm- /EHsc /MDd /GS /fp:precise /Zc:wchar_t /Zc:forScope /Zc:inline /std:c++17 /Fo"X64\DEBUG\\" /Fd"X64\DEBUG\VC142.PDB" /external:W1 /Gd /TP /FC /Zc:__cplusplus -Zc:rvalueCast -Zc:inline -Zc:strictStrings -Zc:throwingNew -permissive- -Zc:__cplusplus -Zc:externConstexpr -utf-8  /Zc:__cplusplus -Zc:rvalueCast -Zc:inline -Zc:strictStrings -Zc:throwingNew -permissive- -Zc:__cplusplus -Zc:externConstexpr -utf-8 C:\USERS\MEDEE\ONEDRIVE\DOCUMENTS\MEDEEA\FACULTATE\LIBRARY_FLORESCUMEDEEA\PROIECT_SMC\PROIECT_SMC\X64\DEBUG\MOC\MOC_MAINWINDOW.CPP
^C:\USERS\MEDEE\ONEDRIVE\DOCUMENTS\MEDEEA\FACULTATE\LIBRARY_FLORESCUMEDEEA\PROIECT_SMC\PROIECT_SMC\X64\DEBUG\MOC\MOC_ACCOUNT.CPP
/c /IX64\DEBUG\UIC /IX64\DEBUG\MOC /IC:\USERS\MEDEE\ONEDRIVE\DOCUMENTS\MEDEEA\FACULTATE\LIBRARY_FLORESCUMEDEEA\PROIECT_SMC\PROIECT_SMC\ /IC:\USERS\MEDEE\ONEDRIVE\DOCUMENTS\MEDEEA\FACULTATE\LIBRARY_FLORESCUMEDEEA\PROIECT_SMC\PROIECT_SMC\X64\DEBUG\QMAKE\TEMP /IC:\QT\6.2.1\MSVC2019_64\INCLUDE /IC:\QT\6.2.1\MSVC2019_64\INCLUDE\QTWIDGETS /IC:\QT\6.2.1\MSVC2019_64\INCLUDE\QTGUI /IC:\QT\6.2.1\MSVC2019_64\INCLUDE\QTSQL /IC:\QT\6.2.1\MSVC2019_64\INCLUDE\QTNETWORK /IC:\QT\6.2.1\MSVC2019_64\INCLUDE\QTCORE /IC:\USERS\MEDEE\ONEDRIVE\DOCUMENTS\MEDEEA\FACULTATE\LIBRARY_FLORESCUMEDEEA\PROIECT_SMC\PROIECT_SMC\X64\DEBUG\QMAKE\TEMP /I/INCLUDE /I"C:\QT\6.2.1\MSVC2019_64\MKSPECS\WIN32-MSVC" /IX64\DEBUG\MOC /IX64\DEBUG\UIC /Zi /nologo /W1 /WX- /diagnostics:column /Od /D _WINDOWS /D UNICODE /D _UNICODE /D WIN32 /D _ENABLE_EXTENDED_ALIGNED_STORAGE /D WIN64 /D QT_WIDGETS_LIB /D QT_GUI_LIB /D QT_SQL_LIB /D QT_NETWORK_LIB /D QT_CORE_LIB /Gm- /EHsc /MDd /GS /fp:precise /Zc:wchar_t /Zc:forScope /Zc:inline /std:c++17 /Fo"X64\DEBUG\\" /Fd"X64\DEBUG\VC142.PDB" /external:W1 /Gd /TP /FC /Zc:__cplusplus -Zc:rvalueCast -Zc:inline -Zc:strictStrings -Zc:throwingNew -permissive- -Zc:__cplusplus -Zc:externConstexpr -utf-8  /Zc:__cplusplus -Zc:rvalueCast -Zc:inline -Zc:strictStrings -Zc:throwingNew -permissive- -Zc:__cplusplus -Zc:externConstexpr -utf-8 C:\USERS\MEDEE\ONEDRIVE\DOCUMENTS\MEDEEA\FACULTATE\LIBRARY_FLORESCUMEDEEA\PROIECT_SMC\PROIECT_SMC\X64\DEBUG\MOC\MOC_ACCOUNT.CPP
^C:\USERS\MEDEE\ONEDRIVE\DOCUMENTS\MEDEEA\FACULTATE\LIBRARY_FLORESCUMEDEEA\PROIECT_SMC\PROIECT_SMC\X64\DEBUG\MOC\MOC_MANAGEACCOUNT.CPP
/c /IX64\DEBUG\UIC /IX64\DEBUG\MOC /IC:\USERS\MEDEE\ONEDRIVE\DOCUMENTS\MEDEEA\FACULTATE\LIBRARY_FLORESCUMEDEEA\PROIECT_SMC\PROIECT_SMC\ /IC:\USERS\MEDEE\ONEDRIVE\DOCUMENTS\MEDEEA\FACULTATE\LIBRARY_FLORESCUMEDEEA\PROIECT_SMC\PROIECT_SMC\X64\DEBUG\QMAKE\TEMP /IC:\QT\6.2.1\MSVC2019_64\INCLUDE /IC:\QT\6.2.1\MSVC2019_64\INCLUDE\QTWIDGETS /IC:\QT\6.2.1\MSVC2019_64\INCLUDE\QTGUI /IC:\QT\6.2.1\MSVC2019_64\INCLUDE\QTSQL /IC:\QT\6.2.1\MSVC2019_64\INCLUDE\QTNETWORK /IC:\QT\6.2.1\MSVC2019_64\INCLUDE\QTCORE /IC:\USERS\MEDEE\ONEDRIVE\DOCUMENTS\MEDEEA\FACULTATE\LIBRARY_FLORESCUMEDEEA\PROIECT_SMC\PROIECT_SMC\X64\DEBUG\QMAKE\TEMP /I/INCLUDE /I"C:\QT\6.2.1\MSVC2019_64\MKSPECS\WIN32-MSVC" /IX64\DEBUG\MOC /IX64\DEBUG\UIC /Zi /nologo /W1 /WX- /diagnostics:column /Od /D _WINDOWS /D UNICODE /D _UNICODE /D WIN32 /D _ENABLE_EXTENDED_ALIGNED_STORAGE /D WIN64 /D QT_WIDGETS_LIB /D QT_GUI_LIB /D QT_SQL_LIB /D QT_NETWORK_LIB /D QT_CORE_LIB /Gm- /EHsc /MDd /GS /fp:precise /Zc:wchar_t /Zc:forScope /Zc:inline /std:c++17 /Fo"X64\DEBUG\\" /Fd"X64\DEBUG\VC142.PDB" /external:W1 /Gd /TP /FC /Zc:__cplusplus -Zc:rvalueCast -Zc:inline -Zc:strictStrings -Zc:throwingNew -permissive- -Zc:__cplusplus -Zc:externConstexpr -utf-8  /Zc:__cplusplus -Zc:rvalueCast -Zc:inline -Zc:strictStrings -Zc:throwingNew -permissive- -Zc:__cplusplus -Zc:externConstexpr -utf-8 C:\USERS\MEDEE\ONEDRIVE\DOCUMENTS\MEDEEA\FACULTATE\LIBRARY_FLORESCUMEDEEA\PROIECT_SMC\PROIECT_SMC\X64\DEBUG\MOC\MOC_MANAGEACCOUNT.CPP
^C:\USERS\MEDEE\ONEDRIVE\DOCUMENTS\MEDEEA\FACULTATE\LIBRARY_FLORESCUMEDEEA\PROIECT_SMC\PROIECT_SMC\X64\DEBUG\RCC\QRC_MAINWINDOW.CPP
/c /IX64\DEBUG\UIC /IX64\DEBUG\MOC /IC:\USERS\MEDEE\ONEDRIVE\DOCUMENTS\MEDEEA\FACULTATE\LIBRARY_FLORESCUMEDEEA\PROIECT_SMC\PROIECT_SMC\ /IC:\USERS\MEDEE\ONEDRIVE\DOCUMENTS\MEDEEA\FACULTATE\LIBRARY_FLORESCUMEDEEA\PROIECT_SMC\PROIECT_SMC\X64\DEBUG\QMAKE\TEMP /IC:\QT\6.2.1\MSVC2019_64\INCLUDE /IC:\QT\6.2.1\MSVC2019_64\INCLUDE\QTWIDGETS /IC:\QT\6.2.1\MSVC2019_64\INCLUDE\QTGUI /IC:\QT\6.2.1\MSVC2019_64\INCLUDE\QTSQL /IC:\QT\6.2.1\MSVC2019_64\INCLUDE\QTNETWORK /IC:\QT\6.2.1\MSVC2019_64\INCLUDE\QTCORE /IC:\USERS\MEDEE\ONEDRIVE\DOCUMENTS\MEDEEA\FACULTATE\LIBRARY_FLORESCUMEDEEA\PROIECT_SMC\PROIECT_SMC\X64\DEBUG\QMAKE\TEMP /I/INCLUDE /I"C:\QT\6.2.1\MSVC2019_64\MKSPECS\WIN32-MSVC" /IX64\DEBUG\MOC /IX64\DEBUG\UIC /Zi /nologo /W1 /WX- /diagnostics:column /Od /D _WINDOWS /D UNICODE /D _UNICODE /D WIN32 /D _ENABLE_EXTENDED_ALIGNED_STORAGE /D WIN64 /D QT_WIDGETS_LIB /D QT_GUI_LIB /D QT_SQL_LIB /D QT_NETWORK_LIB /D QT_CORE_LIB /Gm- /EHsc /MDd /GS /fp:precise /Zc:wchar_t /Zc:forScope /Zc:inline /std:c++17 /Fo"X64\DEBUG\\" /Fd"X64\DEBUG\VC142.PDB" /external:W1 /Gd /TP /FC /Zc:__cplusplus -Zc:rvalueCast -Zc:inline -Zc:strictStrings -Zc:throwingNew -permissive- -Zc:__cplusplus -Zc:externConstexpr -utf-8 C:\USERS\MEDEE\ONEDRIVE\DOCUMENTS\MEDEEA\FACULTATE\LIBRARY_FLORESCUMEDEEA\PROIECT_SMC\PROIECT_SMC\X64\DEBUG\RCC\QRC_MAINWINDOW.CPP
